11 Figure 5 – Farmhouse ale cultures preserve brewing’s lost yeast diversity
…
# Combine the diversity metrics with region information
total_diversity <- groupwise_distance %>%
  left_join(mydata %>% dplyr::select(grouping, region) %>% distinct(), by = "grouping")

# (Optional) Check the diversity summary
print(total_diversity)

# A tibble: 55 × 4
   grouping Mean_Pairwise_Distance n_individuals region              
   <fct>                     <dbl>         <int> <chr>               
 1 Outside                    66.8            24 Russia              
 2 Outside                    66.8            24 South-West Norway   
 3 Outside                    66.8            24 Latvia              
 4 Outside                    66.8            24 South-Eastern Norway
 5 Wild                       56.3             4 Wild                
 6 Beer                      105.             72 Beer                
 7 Wine                       72.1            18 Wine                
 8 Spirits                    69.5             6 Spirits             
 9 Bread                      80.8             4 Bread               
10 Sake                       55.6             7 Sake                
# ℹ 45 more rows
…
